0.149225303673 0.102358792984 0 
0.149223573779 0.102030260671 0 
0.149215635986 0.101387658507 0 
0.149273599873 0.101596407857 0 
0.149333697848 0.102167792056 0 
0.149595417259 0.102585544584 0 
0.14922871182 0.102794287364 0 
0.149481023597 0.102695040793 0 
0.150328847824 0.103532060197 0 
0.149836162895 0.103103188184 0 
0.149561590235 0.102298787584 0 
0.150321635936 0.103552274104 0 
0.149947098527 0.103784203947 0 
0.149059002961 0.10284994741 0 
0.149557002351 0.104110121229 0 
0.149977209565 0.105006315102 0 
0.149396230288 0.104565419597 0 
0.149501423757 0.105587069951 0 
0.149960174917 0.105958998381 0 
0.149149349756 0.105077686393 0 
0.149240094335 0.104898134176 0 
0.149769490024 0.105168790603 0 
0.149188564087 0.104320040572 0 
0.149404311104 0.104615719907 0 
0.149930446434 0.105169465104 0 
0.149408644522 0.10465966242 0 
0.149091442324 0.106233240754 0 
0.149547303933 0.106500014103 0 
0.149940596635 0.107346372246 0 
0.149373213675 0.10679391555 0 
0.149390056447 0.106770599666 0 
0.149202595215 0.106984456385 0 
0.149177452967 0.106878300185 0 
0.149201937303 0.107157106662 0 
0.149741135265 0.108241641105 0 
0.148731232161 0.107697867014 0 
0.148723965801 0.108734303328 0 
0.14903110839 0.110862616788 0 
0.148289813755 0.111519797451 0 
0.147818695443 0.113517163779 0 
0.148263785928 0.11510325407 0 
0.149399361219 0.118104338551 0 
0.148752126886 0.118873312206 0 
0.149210896174 0.120003907758 0 
0.149986538582 0.121811491573 0 
0.149330762139 0.121875427173 0 
0.149519999252 0.122181838543 0 
0.150288136898 0.123401584646 0 
0.14956696672 0.123045098694 0 
0.149646416304 0.122959630174 0 
0.15038090961 0.124137012338 0 
0.149581466373 0.123438905596 0 
0.149430588566 0.12455107367 0 
0.149648631432 0.124473381955 0 
0.150702845204 0.12595806676 0 
0.149762157296 0.12510436495 0 
0.150007058649 0.125417156499 0 
0.150219321151 0.125619033656 0 
0.150065052628 0.125610897041 0 
0.150214742719 0.12547200505 0 
0.150965541667 0.126456831198 0 
0.150249233852 0.125760317633 0 
0.150352056265 0.125831599814 0 
0.150955494378 0.126406579795 0 
0.150206221706 0.12601148539 0 
0.149808601164 0.125900281954 0 
0.150042471792 0.125907005819 0 
0.150812477441 0.12680220455 0 
0.150166173956 0.12642213644 0 
0.150344418353 0.126379431136 0 
0.151004624661 0.127129349277 0 
0.150469647286 0.126875477517 0 
0.150427465323 0.126597594779 0 
0.15112320612 0.127555497295 0 
0.150535174325 0.127085164121 0 
0.150438500604 0.12677000478 0 
0.150850589527 0.127284219578 0 
0.150333095345 0.126952779635 0 
0.149720207229 0.126955084651 0 
0.149983009275 0.127004364702 0 
0.150362863791 0.127453436696 0 
0.150166412168 0.127230874477 0 
0.150054674745 0.126912828139 0 
0.150399685165 0.127253696083 0 
0.150071192369 0.127104561911 0 
0.14993100344 0.126721312569 0 
0.150246291639 0.127119845505 0 
0.150019422048 0.126834883403 0 
0.149832781311 0.12661397165 0 
0.150108171523 0.126909011649 0 
0.14988604796 0.126698444203 0 
0.149686246858 0.127797410889 0 
0.149684553485 0.127631797373 0 
0.149921295155 0.127963725641 0 
0.149703911821 0.127696691368 0 
0.149744299553 0.127680625921 0 
0.149951988992 0.127951054426 0 
0.149713339681 0.127778011023 0 
0.149714041078 0.127643342881 0 
0.149867757928 0.127765558663 0 
0.149652922223 0.12757849878 0 
0.149560358736 0.127081936462 0 
0.149746663096 0.126798264912 0 
0.149342328611 0.125939450281 0 
0.149208494109 0.124810289917 0 
0.149069797706 0.121677492443 0 
0.148769562805 0.118641317053 0 
0.1487283275 0.118626682713 0 
0.148633423934 0.117826146549 0 
0.148827335564 0.118317100487 0 
0.14843244441 0.117477305697 0 
0.148340102784 0.116613857964 0 
0.148687700944 0.116723476526 0 
0.148244378681 0.116039709577 0 
0.148232573457 0.115820793691 0 
0.14853959487 0.116204024663 0 
0.148197726077 0.115865999791 0 
0.148381385642 0.116672048799 0 
0.148308735791 0.116323568155 0 
0.14847878868 0.116398527998 0 
0.14828480242 0.116305242839 0 
0.148297078087 0.116091978267 0 
0.148447995187 0.116228126063 0 
0.148264749588 0.116060241847 0 
0.148337911558 0.115988670028 0 
0.14856252896 0.116183539263 0 
0.148359916331 0.116010130793 0 
0.148341286172 0.115651164601 0 
0.148622850244 0.115993583695 0 
0.148139870745 0.115580207549 0 
0.147940608744 0.115564114421 0 
0.147714756641 0.114645230065 0 
0.147830925354 0.114786320922 0 
0.147591028359 0.114284859498 0 
0.147412855417 0.113149562166 0 
0.14741249302 0.1123403414 0 
0.147208609406 0.111630290492 0 
0.147218570764 0.111564984242 0 
0.147757454367 0.112397743233 0 
0.147452398599 0.112008103115 0 
0.147401802545 0.111695784027 0 
0.147738568141 0.112099495029 0 
0.147395209988 0.111739513897 0 
0.14743860721 0.112392781183 0 
0.147394488355 0.112118357229 0 
0.147499951013 0.112220258643 0 
0.147333604511 0.112171641515 0 
0.147515327721 0.112307432579 0 
0.147799111958 0.112568395608 0 
0.147448602595 0.112385685743 0 
0.147488438075 0.112294416913 0 
0.147814464457 0.112705200429 0 
0.147504320727 0.112540323736 0 
0.147550209243 0.112603642173 0 
0.14799991197 0.113210336696 0 
0.147644617553 0.113231820687 0 
0.147831161169 0.114213896748 0 
0.147801869981 0.114096818277 0 
0.147943747764 0.114452796306 0 
0.147820357411 0.114624411953 0 
0.147977456731 0.115240343704 0 
0.148146260725 0.116698107947 0 
0.148715467505 0.119804407451 0 
0.148666159082 0.12337385398 0 
0.148759264998 0.126067090435 0 
0.14918003432 0.128598257276 0 
0.148819847398 0.129696469681 0 
0.149121975585 0.130370940586 0 
0.148971581222 0.130970575496 0 
0.148525101145 0.132222663192 0 
0.148576061106 0.133994336206 0 
0.148936991203 0.136722198956 0 
0.148802973499 0.138463271776 0 
0.148742194725 0.139789667716 0 
0.149261264434 0.142073881738 0 
0.14905576022 0.143689816194 0 
0.149078169965 0.145254240838 0 
0.149739723327 0.148254838194 0 
0.14937408231 0.14998744525 0 
0.149456702347 0.151549735512 0 
0.149977352014 0.153951528983 0 
0.14951353159 0.15527745913 0 
0.149403110557 0.155371134202 0 
0.149431971156 0.155906742257 0 
0.149854266434 0.156473735807 0 
0.149253940255 0.156032061509 0 
0.148973514029 0.155306812422 0 
0.149162891038 0.154807323263 0 
0.148674790374 0.154009032051 0 
0.148470945443 0.153257118205 0 
0.148834625368 0.153512483023 0 
0.148416451307 0.152703519298 0 
0.148618675966 0.15248298136 0 
0.149373593638 0.15317674622 0 
0.149143509428 0.153064347243 0 
0.14954685456 0.154443812206 0 
0.149360046983 0.154413390618 0 
0.149386370637 0.154779773253 0 
0.148317863965 0.154609640362 0 
0.147673074702 0.154041382972 0 
0.147748768451 0.154027176767 0 
0.146675726244 0.153032054285 0 
0.146072036295 0.151659067249 0 
0.145624557626 0.150687987404 0 
0.144766175509 0.14981142404 0 
0.144180685791 0.149128305419 0 
0.143435922256 0.148752434768 0 
0.143361792506 0.148673928343 0 
0.142834370659 0.147441210825 0 
0.142047132314 0.146795792484 0 
0.168962933527 0.292387183295 0 
0.168967584237 0.292334703506 0 
0.168978765047 0.292324092907 0 
0.168955841363 0.292327224042 0 
0.168958022811 0.292336580424 0 
0.168964551917 0.292342024398 0 
0.168958109652 0.29233225503 0 
0.168958767345 0.292325036725 0 
0.168963231065 0.292324112029 0 
0.168958950895 0.292323860396 0 
0.168960792914 0.292329962901 0 
0.168966828943 0.292343185531 0 
0.16896340768 0.292276570586 0 
0.168959324615 0.292163364402 0 
0.168959083853 0.291963589166 0 
0.168962298992 0.291694054859 0 
0.168935863705 0.291362704248 0 
0.168943654146 0.291058443765 0 
0.168970507045 0.290792674869 0 
0.168947847171 0.290453477355 0 
0.168939904204 0.290115649051 0 
0.168962729156 0.289824189458 0 
0.168966523704 0.28981848496 0 
0.168955187671 0.289546613054 0 
0.169020625146 0.289333395014 0 
0.169051054344 0.289143828389 0 
0.169127886421 0.289099442106 0 
0.169174855155 0.288907640093 0 
0.169277397537 0.288727429725 0 
0.169237074085 0.288260151201 0 
0.169252223653 0.287743042442 0 
0.169261793684 0.287218784355 0 
0.169162403656 0.286680024465 0 
0.169156772901 0.286167539144 0 
0.16917055092 0.285768047538 0 
0.169098538278 0.285281005276 0 
0.169120290617 0.284880770507 0 
0.169147550174 0.284562036641 0 
0.169050627961 0.284153046617 0 
0.169063365606 0.283851157267 0 
0.169057972169 0.283240003354 0 
0.169128333477 0.282597569416 0 
0.16896987503 0.281814316147 0 
0.169065553378 0.281117951687 0 
0.16925640507 0.280757754032 0 
0.169227235812 0.280186597165 0 
0.169346293567 0.279756498168 0 
0.169365678086 0.279796154276 0 
0.169430827941 0.279469668848 0 
0.169528224819 0.279247250811 0 
0.16969992962 0.279028137587 0 
0.169555560027 0.278603776643 0 
0.169685405732 0.278580986286 0 
0.169725883307 0.278077602693 0 
0.169932206631 0.277971534073 0 
0.169795754218 0.277618766371 0 
0.169874233281 0.277327248482 0 
0.170091560051 0.27731899135 0 
0.169891750925 0.276989577309 0 
0.16999437764 0.276828493738 0 
0.170204994907 0.276787798387 0 
0.170003018114 0.276387524201 0 
0.170068481359 0.276030343979 0 
0.170288436051 0.276149093082 0 
0.17012891364 0.276123394288 0 
0.170284335865 0.276882041028 0 
0.170409571429 0.277235778431 0 
0.170696987296 0.277911251042 0 
0.170497073066 0.27797253104 0 
0.170553407397 0.278157952156 0 
0.170832051952 0.278699274741 0 
0.170552088664 0.278601529674 0 
0.170561053139 0.278605436636 0 
0.170762283251 0.278914218858 0 
0.170546688813 0.278749437235 0 
0.170564464976 0.278691118211 0 
0.170799278526 0.278991132908 0 
0.170564489031 0.278888953668 0 
0.170607326795 0.279253796013 0 
0.170592123156 0.279144517183 0 
0.170736743612 0.279362034166 0 
0.170539792212 0.279161284012 0 
0.170557582976 0.279089754462 0 
0.170701692335 0.27922055819 0 
0.170555730735 0.27907031288 0 
0.170568114893 0.279065028956 0 
0.170642515354 0.279169131362 0 
0.170575605298 0.279183669303 0 
0.1705883275 0.279219776641 0 
0.170684337728 0.279408872545 0 
0.170589598135 0.279408945783 0 
0.170605371743 0.279552937613 0 
0.170608648148 0.279543478535 0 
0.170708891723 0.279655869691 0 
0.170598494109 0.27948670879 0 
0.170604805571 0.279407647414 0 
0.170663328151 0.279475155471 0 
0.170609341054 0.279407281152 0 
0.170621715283 0.279232014126 0 
0.170791043261 0.279428091553 0 
0.170632652725 0.27927694825 0 
0.170645052658 0.279176339485 0 
0.170812687912 0.279500803971 0 
0.170657604894 0.279361958435 0 
0.170689796051 0.2795097333 0 
0.170717829315 0.279410493392 0 
0.170835398054 0.279505431638 0 
0.170686517561 0.279369375931 0 
0.170683887381 0.27923292184 0 
0.17079396421 0.279245053524 0 
0.170654710691 0.279086951923 0 
0.17065572537 0.278943275668 0 
0.170731496082 0.279013079921 0 
0.170626914835 0.27881725171 0 
0.176030451522 0.252921791707 0 
0.176133924256 0.253404489154 0 
0.176351771334 0.253768282434 0 
0.176125001103 0.253453305356 0 
0.176067115466 0.252760761528 0 
0.176102625323 0.251848013209 0 
0.175633582485 0.250473334415 0 
0.175559319072 0.249656539042 0 
0 0 0 
0 0 0 
0 0 0 
0 0 0 
0 0 0 
