0.968944248182 0.966494244842 0 
0.968332308102 0.965336687302 0 
0.968018795671 0.964867731631 0 
0.968029986287 0.965051235114 0 
0.967195910756 0.963188375023 0 
0.966815502359 0.961805234702 0 
0.96815231036 0.964314940111 0 
0.967761096945 0.963319686813 0 
0.964990719702 0.958406598795 0 
0.964461105101 0.958755682368 0 
0.963207172846 0.955428452685 0 
0.961922893787 0.953215284929 0 
0.96259207807 0.954390889932 0 
0.95861528004 0.938266191026 0 
0.956093246411 0.932815917936 0 
0.954508881236 0.929759342466 0 
0.955384905585 0.932639283355 0 
0.953532538361 0.927445629193 0 
0.953110033271 0.926537806489 0 
0.954227415323 0.929915829533 0 
0.951880203966 0.923847922275 0 
0.949696975803 0.919241414086 0 
0.951049655589 0.922183665569 0 
0.949140446947 0.916011210005 0 
0.948919028756 0.91573625732 0 
0.950070470098 0.918982114799 0 
0.957348642322 0.9365955214 0 
0.954714981326 0.931778219022 0 
0.953679535954 0.929637061365 0 
0.954165396892 0.930682316087 0 
0.952788414347 0.926860053773 0 
0.954203485493 0.930517342216 0 
0.954158187725 0.930485832067 0 
0.951675744243 0.924861904036 0 
0.952727727115 0.927098020562 0 
0.951019159407 0.922222911059 0 
0.950029887037 0.920095210289 0 
0.95193700234 0.924524159197 0 
0.950923992658 0.923045013638 0 
0.957997061759 0.937548894645 0 
0.955305717235 0.931518523285 0 
0.954219549067 0.928348374901 0 
0.955712495771 0.932433862257 0 
0.954612559568 0.929141846032 0 
0.954335879936 0.929102178135 0 
0.95589412846 0.932871846952 0 
0.954460233819 0.928739924139 0 
0.953465796434 0.927488977409 0 
0.954390989306 0.92972346136 0 
0.953626659296 0.927336804518 0 
0.953182565114 0.925920091323 0 
0.954117285016 0.929173453977 0 
0.961820386972 0.946976723345 0 
0.959644259788 0.942680221469 0 
0.958277736901 0.940122267615 0 
0.959195591946 0.941547191606 0 
0.95839055611 0.939174103821 0 
0.958147379851 0.93869006463 0 
0.958559089125 0.939652044551 0 
0.957322752834 0.936582345377 0 
0.956574825886 0.935026011051 0 
0.957551131082 0.937090128822 0 
0.956965421856 0.935016830904 0 
0.956531509196 0.934157216052 0 
0.957731457075 0.936469810218 0 
0.962831968815 0.947682409448 0 
0.960868486067 0.94374767492 0 
0.960115008418 0.942044407528 0 
0.960460156288 0.942968052534 0 
0.959467072313 0.940502084584 0 
0.959341648265 0.940034209403 0 
0.959775520962 0.941220976572 0 
0.958853864674 0.93850878123 0 
0.958138638174 0.937208078989 0 
0.95833672131 0.937962583399 0 
0.957892363509 0.936771933271 0 
0.957145142949 0.935667936 0 
0.957726901364 0.937016532223 0 
0.964291687713 0.951276271777 0 
0.96215042664 0.946840933853 0 
0.961798849954 0.946250459507 0 
0.961536765978 0.945860673902 0 
0.961823740876 0.946420517995 0 
0.961319242487 0.944902488872 0 
0.960958482991 0.944340586822 0 
0.960895407015 0.944395222685 0 
0.96083725476 0.944335331621 0 
0.96091689953 0.944367304216 0 
0.960546397075 0.943235029871 0 
0.960486554575 0.943154578668 0 
0.959803719784 0.941704111301 0 
0.966779924374 0.957609758894 0 
0.966368223584 0.956925438607 0 
0.966012472067 0.95637164419 0 
0.965928669041 0.956236308725 0 
0.965635375509 0.955896353765 0 
0.96556349283 0.955672734603 0 
0.965133428384 0.954774748312 0 
0.964886793104 0.954281384802 0 
0.964667697726 0.953965398613 0 
0.964391896315 0.953438519943 0 
0.964038542372 0.952901203861 0 
0.963962473111 0.95272034608 0 
0.963660423014 0.952274825978 0 
0.965356848408 0.954905391524 0 
0.96403164823 0.952986951171 0 
0.963352560402 0.951119813283 0 
0.963342558168 0.951242463256 0 
0.96326709298 0.951292536449 0 
0.962879601868 0.950556194373 0 
0.962582119173 0.949681926264 0 
0.962239015342 0.949103709954 0 
0.962393139233 0.949124069697 0 
0.96243230452 0.948694985812 0 
0.962146297341 0.948301373523 0 
0.96217826998 0.948348380103 0 
0.961112018054 0.946357414475 0 
0.966151612366 0.957974610689 0 
0.965540380108 0.956861350712 0 
0.96514327095 0.95651997342 0 
0.964952433852 0.956235868795 0 
0.964453114051 0.955104528845 0 
0.96393751183 0.954545717204 0 
0.963995603135 0.954553655342 0 
0.963801957991 0.953996352036 0 
0.96356422212 0.953833412191 0 
0.963592485447 0.953828376863 0 
0.963561458746 0.95364732532 0 
0.963254090431 0.953204525895 0 
0.963225420411 0.952867246083 0 
0.96521891178 0.956147860019 0 
0.963629813162 0.953921807267 0 
0.9636522664 0.95422223982 0 
0.963106728244 0.953015174194 0 
0.962678673381 0.952047466786 0 
0.962001794412 0.95077589063 0 
0.961394469592 0.949644583208 0 
0.961439785036 0.949195559529 0 
0.961392309207 0.949036957718 0 
0.961342814393 0.948996246047 0 
0.961352494625 0.948714649036 0 
0.961292809934 0.948710686874 0 
0.960359675811 0.947355405424 0 
0.965535825468 0.957588978642 0 
0.964609581296 0.955878818139 0 
0.963964775786 0.954740806064 0 
0.963979140687 0.954894539426 0 
0.96371994225 0.954119809377 0 
0.96296571405 0.952925870238 0 
0.963362169327 0.95343226307 0 
0.963300668015 0.953195192742 0 
0.963144557739 0.952961796509 0 
0.963123655375 0.952689895092 0 
0.962921666284 0.952191899303 0 
0.9628022425 0.951817283634 0 
0.962838603816 0.951699823385 0 
0.964812210813 0.9552205613 0 
0.964599179795 0.954805340526 0 
0.963569806434 0.953168741818 0 
0.96318176869 0.952566557987 0 
0.962760534212 0.951989375 0 
0.962670035501 0.95132673281 0 
0.962339390079 0.950950894703 0 
0.962007589261 0.950088423195 0 
0.961778525642 0.949692083932 0 
0.961472077294 0.949060244083 0 
0.961157082232 0.948168367529 0 
0.960913499045 0.947486555393 0 
0.960651609357 0.946419071302 0 
0.963727550993 0.951487588104 0 
0.962087789365 0.948891537169 0 
0.961502710119 0.947682562643 0 
0.961039704952 0.947057144653 0 
0.960992272509 0.946452783402 0 
0.960856589594 0.94565071619 0 
0.960585277714 0.944849606978 0 
0.960558427788 0.944437084181 0 
0.960735415501 0.945356258696 0 
0.960760164582 0.945219199909 0 
0.960807449705 0.945125202308 0 
0.96090233777 0.944992051294 0 
0.95896094543 0.941631260454 0 
0.964363389578 0.951067420385 0 
0.963025151324 0.949155940744 0 
0.962561222842 0.948596268263 0 
0.961860380954 0.947212994022 0 
0.961008718149 0.945097006072 0 
0.960601485016 0.943437245996 0 
0.959736435154 0.941534482419 0 
0.958932613301 0.939117164741 0 
0.958688105583 0.938481268796 0 
0.95835883581 0.937613442589 0 
0.958330783048 0.937087973549 0 
0.957857927172 0.935919665359 0 
0.957755672956 0.935611068051 0 
0.964456745714 0.952133420046 0 
0.963000459021 0.950023155177 0 
0.962538906534 0.949110552096 0 
0.961884007162 0.947893793307 0 
0.961281167276 0.947045356462 0 
0.961092461816 0.946664311025 0 
0.960264403128 0.945565157693 0 
0.959814841293 0.944944112306 0 
0.959229864943 0.944065362707 0 
0.958716764631 0.942924347381 0 
0.958152927399 0.94223730824 0 
0.957357376323 0.940370313823 0 
0.957274468424 0.940295065184 0 
0.9512546467 0.918426591912 0 
0.950045436637 0.91617182343 0 
0.987957402161 0.990963989832 0 
0.987906505293 0.990551551639 0 
0.987895730928 0.990479268766 0 
0.98791480723 0.99062511248 0 
0.987913507148 0.9905939538 0 
0.987908009017 0.990587162663 0 
0.987908475554 0.990623581711 0 
0.987908107358 0.990593183926 0 
0.9879098 0.990611426553 0 
0.987910323049 0.990642016213 0 
0.987911052815 0.990625141724 0 
0.987910336639 0.990628767422 0 
0.987845797078 0.990539591613 0 
0.98770385492 0.990207778738 0 
0.987589749278 0.990090842975 0 
0.987459498039 0.990017367807 0 
0.987337348448 0.990004160934 0 
0.987211365867 0.989989199758 0 
0.987128396619 0.989885757919 0 
0.986985200546 0.989817634065 0 
0.986950905646 0.989791662238 0 
0.986872317227 0.989633207082 0 
0.98685886714 0.989622553774 0 
0.986879652333 0.989445302109 0 
0.986874173413 0.989277930864 0 
0.986910393788 0.989172849321 0 
0.987321098278 0.989163236954 0 
0.987277203094 0.989119609613 0 
0.987204804338 0.988869958197 0 
0.98720351305 0.988729058346 0 
0.987219701077 0.988658595997 0 
0.987193361016 0.988643745611 0 
0.98714726764 0.988474775521 0 
0.987083239177 0.988398032432 0 
0.987062064648 0.988240365211 0 
0.987014525035 0.988074408229 0 
0.986901126774 0.98794116238 0 
0.98684027287 0.987683426134 0 
0.986764304563 0.987488087375 0 
0.987213751349 0.98744715154 0 
0.987095427371 0.987372455763 0 
0.987003273947 0.987360887196 0 
0.986953733017 0.987140927925 0 
0.986910786618 0.987051087731 0 
0.986929977867 0.986857413707 0 
0.986801255266 0.986539348872 0 
0.986530940774 0.986122017511 0 
0.986515379404 0.986134481101 0 
0.986533146101 0.986206430793 0 
0.986411825568 0.985962356562 0 
0.986305558131 0.985845568373 0 
0.986256984537 0.985623989523 0 
0.986775306401 0.985936651689 0 
0.986552816674 0.985740869746 0 
0.986694867979 0.985560258357 0 
0.986708200232 0.985417449126 0 
0.986765996756 0.985282123587 0 
0.986611639656 0.984926152729 0 
0.986518184017 0.984863552855 0 
0.986228977345 0.9846112754 0 
0.986153321708 0.984684676739 0 
0.986121492215 0.984831934249 0 
0.986193277604 0.984861981165 0 
0.986287076313 0.984931780747 0 
0.986272562963 0.984882939321 0 
0.987300681416 0.985814110868 0 
0.987230282827 0.985892681808 0 
0.987224663469 0.985760812555 0 
0.98723883872 0.985670400719 0 
0.987349708233 0.985830200956 0 
0.987477179781 0.985958338383 0 
0.987395413624 0.985669351194 0 
0.987392853722 0.985652014134 0 
0.987462020575 0.985643290472 0 
0.987515235024 0.98572218736 0 
0.987538344876 0.985810519805 0 
0.987525807063 0.98570908149 0 
0.987693262302 0.98586629605 0 
0.988381854612 0.987616847105 0 
0.988168001972 0.987210416546 0 
0.988128299732 0.987221230877 0 
0.988165093853 0.987235998057 0 
0.988105132068 0.987048279713 0 
0.98808294002 0.986984829458 0 
0.988204161632 0.987166605675 0 
0.988156536017 0.987052914045 0 
0.988171442444 0.987093969916 0 
0.988197491923 0.987161879095 0 
0.988220228675 0.98714551806 0 
0.988168036845 0.986977939127 0 
0.988210118008 0.987111689721 0 
0.98896673402 0.988542677555 0 
0.988865523815 0.988234144597 0 
0.988794018624 0.988065793651 0 
0.988839555585 0.988154978598 0 
0.988743152526 0.98795236205 0 
0.988777549808 0.988017101285 0 
0.988788840065 0.988084412416 0 
0.988719648603 0.987988457269 0 
0.988630385572 0.987921263179 0 
0.988714937145 0.988024660487 0 
0.988600671426 0.987856065541 0 
0.988611197197 0.987908358813 0 
0.988679087223 0.987958315453 0 
0.988525401226 0.988128314468 0 
0.988247774135 0.987722481934 0 
0.988145894317 0.987522109556 0 
0.988286654105 0.987671731882 0 
0.988135595035 0.987506288546 0 
0.988011942689 0.987361107479 0 
0.988128491617 0.987428030649 0 
0.987960553232 0.987200006536 0 
0.987854804407 0.987053946266 0 
0.987729884903 0.986823975522 0 
0.989503756674 0.986689017333 0 
0.989205717391 0.986010001305 0 
0.989094776702 0.985714912901 0 
0.989095031694 0.985495294518 0 
0.989031222427 0.985231075387 0 
0.988903075975 0.984802008573 0 
0.988828072044 0.984484915382 0 
0.988588770155 0.983941665461 0 
0.988580292111 0.984019522497 0 
0.98859609817 0.983943442483 0 
0.988512224361 0.98367138009 0 
0.988504009914 0.983424333249 0 
0.988365193727 0.982949694921 0 
