0.97299139829 0.97294740303 0 
0.985598269978 0.991353090653 0 
0.985550388689 0.991236431046 0 
0.985530823399 0.991191542446 0 
0.985502046293 0.991136808461 0 
0.985459257555 0.990973002686 0 
0.98539091658 0.990816022766 0 
0.985397070181 0.990842114179 0 
0.985358723609 0.990719562684 0 
0.985329016821 0.990650370281 0 
0.985327250306 0.990616445102 0 
0.985262263501 0.990501590816 0 
0.985237424892 0.99046611362 0 
0.985279860504 0.990489256431 0 
0.985238594983 0.990355949409 0 
0.98695564595 0.992253635249 0 
0.986574148648 0.991796387844 0 
0.986360510273 0.991514831952 0 
0.986154161085 0.99128510137 0 
0.986112688494 0.991257179229 0 
0.986066672811 0.991179407346 0 
0.986063916379 0.991153270609 0 
0.986043292525 0.991110015982 0 
0.986018726908 0.991057155058 0 
0.985992284193 0.990968145143 0 
0.985973793831 0.990903974916 0 
0.985984072587 0.990815270099 0 
0.986019360018 0.990800803047 0 
0.986065956613 0.990831567042 0 
0.986058144841 0.990824243162 0 
0.98718956574 0.992183899473 0 
0.986988104961 0.991904460092 0 
0.986974525027 0.991916490872 0 
0.986912232933 0.991792799843 0 
0.986784112062 0.991571818991 0 
0.986705025476 0.991479798279 0 
0.98661144649 0.991370051578 0 
0.986553522169 0.991270032483 0 
0.986545050137 0.991263885913 0 
0.986553423068 0.991191639812 0 
0.986563805425 0.991092810439 0 
0.986601919684 0.991012777491 0 
0.986637969133 0.990889831795 0 
0.986624214846 0.990814809462 0 
0.986672435595 0.99083107591 0 
0.987639500615 0.992055694971 0 
0.987397202799 0.991621423069 0 
0.987282009549 0.991438591548 0 
0.987158565736 0.991294200182 0 
0.985318902103 0.990012808166 0 
0.985396376483 0.989892407396 0 
0.986870247159 0.990621363197 0 
0.985252853161 0.989704738917 0 
0.985299825541 0.989559595536 0 
0.986593017759 0.990098405721 0 
0.985241893202 0.989401807266 0 
0.986646781931 0.990212559993 0 
0.986718667036 0.990223862019 0 
0.985687838268 0.990411797037 0 
0.986062188269 0.990787569407 0 
0.987760531758 0.991785741908 0 
0.98603802856 0.990495110971 0 
0.986042133164 0.990365919904 0 
0.987322381633 0.991104183676 0 
0.985721674892 0.989992833515 0 
0.98575727867 0.989850938726 0 
0.987096866309 0.990657572501 0 
0.985496051095 0.989487401776 0 
0.985483908922 0.989395537284 0 
0.98688332962 0.99036090349 0 
0.985336668532 0.989204738805 0 
0.985303164536 0.989075768578 0 
0.986685157037 0.990025890913 0 
0.9860327836 0.99042328288 0 
0.986221445598 0.990588008984 0 
0.987359401733 0.991258960327 0 
0.985902021525 0.990129620418 0 
0.985891986213 0.989947827213 0 
0.98675446743 0.990495153543 0 
0.985587667533 0.98959359692 0 
0.985793400192 0.989658598023 0 
0.986413589995 0.990087840639 0 
0.986214765416 0.989998432734 0 
0.985707184486 0.989539686065 0 
0.98615670247 0.989775151625 0 
0.985813868729 0.989576623845 0 
0.98571919913 0.989475615534 0 
0.985984832979 0.989637256317 0 
0.986558408317 0.990989745091 0 
0.986608629261 0.991038114833 0 
0.986805887355 0.990796452183 0 
0.986637374077 0.990690601935 0 
0.98654019155 0.990617693212 0 
0.986578343078 0.990519092027 0 
0.986449291183 0.990456082743 0 
0.986382087319 0.990384825584 0 
0.986443281576 0.990357059855 0 
0.986204934586 0.990180998623 0 
0.986172212382 0.99014528552 0 
0.986308019287 0.99023463143 0 
0.986111928987 0.990047917254 0 
0.986033227045 0.989938691787 0 
0.986197676579 0.990142293989 0 
0.986593967882 0.990782956061 0 
0.986413988511 0.990540642318 0 
0.986256713455 0.990417556595 0 
0.986152267254 0.99032965982 0 
0.986146649937 0.990354793806 0 
0.986060255294 0.990222368658 0 
0.985993679764 0.990122833085 0 
0.985919418269 0.990041598371 0 
0.985825856523 0.989931837825 0 
0.98544184548 0.989647789053 0 
0.985426656965 0.989600810256 0 
0.985667771364 0.989751264659 0 
0.985499386076 0.989673194004 0 
0.985512399344 0.989648894727 0 
0.9856181679 0.989655263866 0 
0.986282654115 0.991101916301 0 
0.986312504988 0.991199357491 0 
0.986313147155 0.990739772212 0 
0.98600060651 0.990518953097 0 
0.985957272661 0.990491264585 0 
0.98606309702 0.990493476509 0 
0.985855796458 0.990401892687 0 
0.985785244285 0.990286701075 0 
0.985894723466 0.990280717593 0 
0.985714748012 0.990201964722 0 
0.985561141606 0.989988749326 0 
0.985690660595 0.989986966769 0 
0.985629507227 0.989906044039 0 
0.985540375647 0.989856142152 0 
0.985543585279 0.989883326369 0 
0.986185861542 0.990773940398 0 
0.985956560319 0.990554490886 0 
0.985759901255 0.990388039971 0 
0.985654169671 0.990338453912 0 
0.985534206836 0.990224751022 0 
0.985464771921 0.990187766293 0 
0.984973947944 0.989868329997 0 
0.985054171669 0.989822013278 0 
0.985316781289 0.990002678017 0 
0.985066286303 0.989885924165 0 
0.985035629913 0.989860159424 0 
0.985220117532 0.989921462678 0 
0.98497035681 0.989762231812 0 
0.984986016087 0.989769008918 0 
0.98517826442 0.989854886896 0 
0.985765981965 0.991108171018 0 
0.985952372605 0.991289858548 0 
0.985982912707 0.990891311099 0 
0.98574202975 0.990709699155 0 
0.985539920024 0.990499054247 0 
0.985681846776 0.990426132556 0 
0.985530914511 0.990301050113 0 
0.985577776224 0.990199310843 0 
0.985529064212 0.990127568583 0 
0.985529579702 0.990151750783 0 
0.985472880242 0.990051800663 0 
0.98545125936 0.989996452936 0 
0.985375486474 0.989861446372 0 
0.985372358242 0.989773273889 0 
0.985336289217 0.989684327239 0 
0.986141902569 0.990782026422 0 
0.985976956276 0.990523438895 0 
0.985844251117 0.990331412745 0 
0.985720306433 0.990086199379 0 
0.985632258131 0.989948713843 0 
0.985611403044 0.989810930168 0 
0.985502805634 0.989666934137 0 
0.9854399435 0.989549630105 0 
0.985424559592 0.989474251372 0 
0.985390994595 0.989323845344 0 
0.985372193924 0.989178264679 0 
0.985352300127 0.989014733951 0 
0.985365787735 0.98893424221 0 
0.985398362769 0.988854043467 0 
0.985415944557 0.988765046604 0 
0.986453306291 0.990329326833 0 
0.986237196349 0.989870504054 0 
0.986123310213 0.989537397744 0 
0.986055983075 0.989336751603 0 
0.986063911128 0.989387078627 0 
0.986019503694 0.989209935503 0 
0.985917511844 0.989083331819 0 
0.985822523019 0.9890403862 0 
0.985708542165 0.988984545093 0 
0.985556195152 0.988908275711 0 
0.985428884192 0.988863999526 0 
0.985303898269 0.9887522181 0 
0.985219943423 0.988707937898 0 
0.985154626228 0.988682985907 0 
0.985084207465 0.988560246953 0 
0.986079176029 0.989983162037 0 
0.9858878629 0.989640737528 0 
0.985729959717 0.989302088915 0 
0.985646648468 0.989133899426 0 
0.985581446506 0.989044493225 0 
0.98546760209 0.988912647549 0 
0.985371702354 0.988785624121 0 
0.985263936077 0.988753720586 0 
0.985172882939 0.988694213228 0 
0.985088192798 0.988772570235 0 
0.984927345131 0.988667937503 0 
0.984815509593 0.988545416357 0 
0.984701835171 0.988456579878 0 
0.984611667191 0.98835190711 0 
0.984627822009 0.988416883278 0 
0.985377376056 0.989565587691 0 
0.985153131537 0.989205434479 0 
0.99509026497 0.997199012683 0 
0.995072026124 0.997092323636 0 
0.995070969616 0.997085136502 0 
0.995064931023 0.997051960884 0 
0.995065169142 0.99705008727 0 
0.99506478898 0.997048937235 0 
0.995060775765 0.997030432596 0 
0.995061536834 0.997033693686 0 
0.99506149749 0.99703581457 0 
0.995058320588 0.997018691311 0 
0.995059029468 0.997027730477 0 
0.995056966176 0.997038605277 0 
0.995046869113 0.99701951108 0 
0.995030876817 0.997053129791 0 
0.994998442432 0.997012411123 0 
0.994986519944 0.996949778151 0 
0.994922376923 0.99693870063 0 
0.994878940325 0.996909608353 0 
0.994939232993 0.99696157469 0 
0.994853151444 0.996907197073 0 
0.994804457216 0.996882470687 0 
0.994867741136 0.996891665017 0 
0.994867425351 0.996892973747 0 
0.994776795747 0.996792577871 0 
0.994830051305 0.996804453836 0 
0.994744194116 0.996695385874 0 
0.994675646255 0.996576827299 0 
0.99477276279 0.996600923021 0 
0.994776688289 0.9965713583 0 
0.994739596933 0.996507694469 0 
0.994694947424 0.996436019629 0 
0.994661570255 0.996370583367 0 
0.994613219341 0.996270226448 0 
0.994592719367 0.996237671323 0 
0.994570986469 0.996218461987 0 
0.994537281774 0.996155780771 0 
0.99448001925 0.996038607092 0 
0.994446868693 0.995921360242 0 
0.994425886437 0.995846390808 0 
0.994380616466 0.995730255923 0 
0.994308369213 0.995572370347 0 
0.994276216569 0.995507687495 0 
0.994211902192 0.995351941244 0 
0.994304829502 0.995490042341 0 
0.994221728594 0.995277960458 0 
0.994140464675 0.995051299439 0 
0.994076784761 0.994900501319 0 
0.99408732899 0.994940786464 0 
0.994048351003 0.994798631278 0 
0.994007061807 0.994675211709 0 
0.993985457635 0.994615996942 0 
0.993936609053 0.994498185402 0 
0.993919370403 0.994431880582 0 
0.993873997482 0.994266556071 0 
0.99384590248 0.994099738102 0 
0.993824310784 0.993956221261 0 
0.993800086283 0.993827424211 0 
0.993758508725 0.993655624272 0 
0.994020669912 0.994328495435 0 
0.993922392401 0.994131933977 0 
0.993848628863 0.993978896754 0 
0.993801446612 0.993917495595 0 
0.993748506844 0.99383404259 0 
0.993714005692 0.99376627708 0 
0.993683036804 0.993659224617 0 
0.993474880836 0.993325593068 0 
0.993430581366 0.993133594005 0 
0.993625219108 0.993205821059 0 
0.993482915216 0.993004364998 0 
0.993464476945 0.99290455499 0 
0.99359715571 0.992818272297 0 
0.993745326445 0.993553525695 0 
0.993748519279 0.993571856383 0 
0.9939142611 0.993728687498 0 
0.993790785422 0.993551421828 0 
0.993712261559 0.993367238236 0 
0.993789080215 0.993293837602 0 
0.993694562014 0.993218795657 0 
0.993650859305 0.993085141119 0 
0.993731143092 0.993064393074 0 
0.99368258457 0.993080148023 0 
0.993654967148 0.993013350129 0 
0.993696654086 0.992921144128 0 
0.993671811508 0.992963132864 0 
0.993652843094 0.992893144705 0 
0.993682133497 0.99285134143 0 
0.993906961818 0.993770573786 0 
0.993954702098 0.99386942588 0 
0.993934623188 0.993640568871 0 
0.993903301135 0.993650125188 0 
0.993878509238 0.993555178304 0 
0.993886959125 0.993503077051 0 
0.993854892252 0.993463724549 0 
0.993845827316 0.99342315033 0 
0.993857948488 0.993361208693 0 
0.99382238958 0.993382908372 0 
0.993850453211 0.993389527951 0 
0.99384123116 0.993334039825 0 
0.993797579586 0.993349753993 0 
0.993767061926 0.993300001833 0 
0.993807416257 0.993250760979 0 
0.993838785671 0.993589441511 0 
0.993878722136 0.993688907265 0 
0.993926155492 0.993591831043 0 
0.993860841906 0.993556697366 0 
0.993824063659 0.993497082112 0 
0.993852183157 0.993394584797 0 
0.99379324147 0.993338314222 0 
0.993746942088 0.993275350674 0 
0.993790848538 0.993219456485 0 
0.993742676742 0.993250804925 0 
0.993715360928 0.993181861077 0 
0.993744492155 0.993135577256 0 
0.993765866509 0.993190188341 0 
0.994422181604 0.994487202493 0 
0.994202189073 0.993677074057 0 
0.994012320658 0.99331172778 0 
0.994012100457 0.993028598598 0 
0.993946232622 0.992829259012 0 
0.993843561563 0.992503357702 0 
0.993742439213 0.992188966259 0 
0.993652197926 0.991885940068 0 
0.993663116429 0.991975641458 0 
0.993471607727 0.991606278259 0 
0.993509689586 0.991337254397 0 
0.993526601016 0.991244704895 0 
0.993525434719 0.991095092103 0 
