0.943008097355 0.885491348207 0 
0.944553616171 0.890544161159 0 
0.944710802437 0.890307346421 0 
0.943748257147 0.887005761971 0 
0.944773369831 0.890588344684 0 
0.94537448684 0.89104652914 0 
0.944849566121 0.889058150406 0 
0.945079185838 0.889592543372 0 
0.942661971234 0.883564992662 0 
0.940274007557 0.879766896324 0 
0.938636108879 0.874836860614 0 
0.93971205361 0.876968488369 0 
0.942210699992 0.882469785451 0 
0.938163819018 0.866410843271 0 
0.937403705306 0.865496478383 0 
0.937260571197 0.866514215288 0 
0.937044102517 0.865274584248 0 
0.936956906397 0.862591654869 0 
0.936743740059 0.862078905925 0 
0.935885978762 0.859404029332 0 
0.934567797529 0.854099796403 0 
0.933440146163 0.851649224702 0 
0.934874564172 0.853858935636 0 
0.935393528413 0.854081033253 0 
0.939416861553 0.875492163787 0 
0.937434150912 0.867713056788 0 
0.936109710326 0.862758424781 0 
0.935659449016 0.861967946291 0 
0.935972846942 0.860381601597 0 
0.935911334182 0.859596043794 0 
0.935657901975 0.858736247133 0 
0.935821361455 0.857844420696 0 
0.936124467287 0.859336876793 0 
0.934538789371 0.852672808235 0 
0.935949963282 0.855861078448 0 
0.936485010819 0.856865815159 0 
0.941180252195 0.881339447983 0 
0.939550373247 0.876201750556 0 
0.93835143226 0.871744892887 0 
0.938008333684 0.870373444975 0 
0.938637281698 0.868557461609 0 
0.93958600214 0.870650122448 0 
0.939758520853 0.870483502829 0 
0.939736031085 0.869387580798 0 
0.938127522677 0.86431643042 0 
0.939126759596 0.866361374617 0 
0.93915608277 0.86461659372 0 
0.939333083129 0.865114589224 0 
0.94574464025 0.893507454278 0 
0.944096184361 0.88947315368 0 
0.942902228597 0.885177327398 0 
0.94250881566 0.883594430036 0 
0.942810128025 0.882692627753 0 
0.94241438915 0.881261154862 0 
0.941853913952 0.87948991033 0 
0.942796292067 0.881736046163 0 
0.942514052087 0.881069908211 0 
0.941291560534 0.877525240558 0 
0.942318110909 0.878778543855 0 
0.94293845269 0.880521828079 0 
0.94689986765 0.896518887022 0 
0.945997019098 0.89291516218 0 
0.946198108952 0.893867577475 0 
0.945385679234 0.890959181749 0 
0.945789858578 0.891672410633 0 
0.945987274129 0.891684394783 0 
0.94509084628 0.889127435488 0 
0.945640674925 0.89008686594 0 
0.944925364871 0.886974218097 0 
0.945701663964 0.888424786647 0 
0.946133163811 0.888587973358 0 
0.946546723897 0.889655752492 0 
0.948330810246 0.897557499186 0 
0.947819263157 0.894458269809 0 
0.947257326528 0.892447822126 0 
0.947089158856 0.891659630303 0 
0.947697529625 0.894351453311 0 
0.947665031988 0.893618779279 0 
0.946672834155 0.890229783487 0 
0.947195049399 0.892212523723 0 
0.946034245126 0.888278629378 0 
0.946532680518 0.889191012781 0 
0.947106947625 0.8909707755 0 
0.947151626031 0.891061264183 0 
0.947919635022 0.895703254458 0 
0.948116739431 0.895591815419 0 
0.947753809294 0.894178585647 0 
0.947203911154 0.893002014099 0 
0.947981050047 0.895236578736 0 
0.948018067019 0.895179511672 0 
0.947310175572 0.892523288236 0 
0.947939710511 0.894822136576 0 
0.947902516546 0.894566326974 0 
0.947160695611 0.892374137227 0 
0.947551484561 0.893376484485 0 
0.947966685198 0.894331462598 0 
0.947730302495 0.89598575836 0 
0.947904799924 0.895977685131 0 
0.94779975332 0.895454680954 0 
0.946829976498 0.89278469056 0 
0.947856812543 0.896073891958 0 
0.947892854081 0.895639523784 0 
0.946488762625 0.890963315596 0 
0.946642882417 0.892292214088 0 
0.945171164966 0.886677098132 0 
0.945173554619 0.886096378996 0 
0.945503496645 0.886344262545 0 
0.946310225503 0.888679913336 0 
0.946436108901 0.892463623577 0 
0.94588343986 0.890074582697 0 
0.945378402139 0.888650179024 0 
0.943793880587 0.884227024401 0 
0.945290860548 0.889168988205 0 
0.9451538871 0.888442811563 0 
0.944083199331 0.884906442645 0 
0.945447467702 0.889628170957 0 
0.945515716659 0.889428551672 0 
0.944461245334 0.88584937565 0 
0.945134844914 0.887580104445 0 
0.945474420878 0.889142860015 0 
0.946071900766 0.891574304856 0 
0.946277483684 0.891775988289 0 
0.946195522615 0.891456514012 0 
0.945280958328 0.889098308135 0 
0.94633290529 0.89238671253 0 
0.946527839678 0.892326417457 0 
0.945545246506 0.889360035667 0 
0.94616030228 0.891217798145 0 
0.945840281592 0.889844672133 0 
0.944762572278 0.886479650084 0 
0.945186862584 0.88687372046 0 
0.945232738471 0.887392690905 0 
0.94555434725 0.891796118035 0 
0.944865010138 0.889580434105 0 
0.944268915358 0.88739866377 0 
0.942570668985 0.880667878433 0 
0.943574182174 0.884577192444 0 
0.943614393854 0.884716573117 0 
0.942717004643 0.882009330384 0 
0.943601752574 0.885705464005 0 
0.943542094448 0.885145299611 0 
0.942513508374 0.882098288068 0 
0.94302399544 0.883839849689 0 
0.943477923145 0.885374368573 0 
0.944858435903 0.890634624082 0 
0.944881314064 0.891081562715 0 
0.944833503465 0.890648603105 0 
0.944101486359 0.88893744349 0 
0.944878755131 0.891126887633 0 
0.944883287644 0.89084643148 0 
0.943908025478 0.888438848929 0 
0.944885093635 0.890817349597 0 
0.944969908131 0.890412076694 0 
0.94385932998 0.887822958731 0 
0.944328717867 0.888713479308 0 
0.944479523791 0.888854188662 0 
0.945025657548 0.892477419214 0 
0.945297290112 0.892675839067 0 
0.94447208349 0.889848688755 0 
0.943117099355 0.885721827917 0 
0.943966689317 0.887726267623 0 
0.943949962788 0.887138027015 0 
0.942993965423 0.883552710272 0 
0.943885135656 0.884749902166 0 
0.94240642051 0.880369964902 0 
0.943036139798 0.881491372851 0 
0.943444315656 0.882665576749 0 
0.943237497332 0.88169593763 0 
0.94578411258 0.893028325772 0 
0.944461417471 0.887211426718 0 
0.944084565402 0.885007616768 0 
0.942210850386 0.87999178056 0 
0.94348804199 0.883749580429 0 
0.943876258249 0.883602456666 0 
0.942526550833 0.877209787292 0 
0.942520033406 0.877433797796 0 
0.94261511919 0.877386049353 0 
0.942446366696 0.875920604163 0 
0.942539018864 0.876073584445 0 
0.942791679687 0.876902964204 0 
0.947855440859 0.895145876566 0 
0.946696177226 0.89093084069 0 
0.946926523587 0.891062991614 0 
0.944733168445 0.885971113236 0 
0.945350015986 0.885317217941 0 
0.944844515749 0.883786248458 0 
0.942860266076 0.878096099818 0 
0.942093231709 0.875955935282 0 
0.941460394021 0.873152199247 0 
0.941532635225 0.872797384462 0 
0.940988538194 0.871324347068 0 
0.940593082304 0.869719187256 0 
0.947158514828 0.894330142875 0 
0.945186917089 0.88813887017 0 
0.944216200834 0.884674723054 0 
0.942552064433 0.879892933525 0 
0.943518355401 0.880941532743 0 
0.943386456315 0.879463019313 0 
0.941235589168 0.873974299368 0 
0.941075231572 0.873302605231 0 
0.94112066213 0.873685625589 0 
0.940831630027 0.872130656195 0 
0.940318212185 0.871996610411 0 
0.93977177337 0.870901404272 0 
0.945063337767 0.891728730134 0 
0.942422627093 0.882786656255 0 
0.941365767298 0.87999317292 0 
0.940548008218 0.877942765254 0 
0.940495116819 0.875516422319 0 
0.938227594846 0.87067740827 0 
0.974549348447 0.950614629443 0 
0.97508094863 0.951218611426 0 
0.975409121239 0.95175205085 0 
0.975601886758 0.952091290881 0 
0.975783347351 0.952354263841 0 
0.975887744574 0.95254059014 0 
0.976065319675 0.920440128278 0 
0.976247154954 0.921030935246 0 
0.976279558881 0.921177188163 0 
0.976131652206 0.920612120356 0 
0.976201159659 0.921055355123 0 
0.976339188623 0.92154738025 0 
0.976544366687 0.923973618665 0 
0.976579779277 0.923924734695 0 
0.976639810812 0.924036584268 0 
0.976548048326 0.92387477443 0 
0.976494078911 0.924173759675 0 
0.976474882442 0.924183528923 0 
0.975634673203 0.919690407205 0 
0.975643386751 0.919973307457 0 
0.975587077978 0.920052401683 0 
0.975456019027 0.919773333128 0 
0.975721385322 0.920253117643 0 
0.975806536397 0.920475213213 0 
0.975957616558 0.920476125945 0 
0.976009393984 0.920437837892 0 
0.976036487147 0.920437319277 0 
0.975986681838 0.920087218257 0 
0.976087298079 0.920326910644 0 
0.976075770972 0.920328406759 0 
0.975099546522 0.907039808204 0 
0.974413202482 0.912965846255 0 
0.974412618809 0.913299832071 0 
0.973765296854 0.912585962971 0 
0.974416871885 0.915964115763 0 
0.974910811998 0.917655182039 0 
0.974945356813 0.917266963487 0 
0.974979418583 0.917482421705 0 
0.975008711453 0.917429722673 0 
0.974933485964 0.916457448173 0 
0.975071632566 0.917331711002 0 
0.975109668712 0.91744389585 0 
0.973948262654 0.897582318896 0 
0.97399706373 0.899100645465 0 
0.973934080757 0.899569399623 0 
0.97290084155 0.895238036259 0 
0.97324199547 0.896941803863 0 
0.973934947445 0.900495784166 0 
0.973890984453 0.900996716018 0 
0.974198514343 0.90250712764 0 
0.974344438002 0.903349749837 0 
0.974500343892 0.904147688953 0 
0.974675768596 0.906021992388 0 
0.973949145977 0.90992883867 0 
0.972333835165 0.871033897511 0 
0.972954740983 0.880009379544 0 
0.973077363108 0.880410873066 0 
0.971877254851 0.874361207759 0 
0.972783888822 0.882665600469 0 
0.973237950608 0.888461630361 0 
0.973335682825 0.890623786707 0 
0.973534993019 0.893471390066 0 
0.973623108635 0.894646407013 0 
0.973569943893 0.895269810807 0 
0.973705011261 0.895253802346 0 
0.974025296934 0.89676227363 0 
0.970976527941 0.850663258762 0 
0.972072376227 0.86213642537 0 
0.972284515039 0.86572145958 0 
0.971213207499 0.857652956624 0 
0.972582540836 0.869607978749 0 
0.973283860902 0.874471052438 0 
0.973639643569 0.876995202394 0 
0.973782279761 0.878933972838 0 
0.973823655909 0.87939355035 0 
0.974031605668 0.881923217538 0 
0.974166826934 0.883551200299 0 
0.974157020425 0.884110303357 0 
0.971058699013 0.845093866327 0 
0.972468917733 0.862027817392 0 
0.972854930837 0.865517070533 0 
0.971943922266 0.859071499622 0 
0.9729078798 0.866313302943 0 
0.973688004227 0.873625282572 0 
0.973901824386 0.875520294688 0 
0.974120592763 0.877439278131 0 
0.974314183593 0.878910793174 0 
0.974542470963 0.881070682823 0 
0.97504606634 0.884444772831 0 
0.975078732354 0.884724042261 0 
0.969954585688 0.822752921838 0 
0.971672054068 0.842310705756 0 
0.972196864083 0.847013725084 0 
0.971202521517 0.839170187607 0 
0.972552833347 0.851388435096 0 
0.972831397516 0.854514796523 0 
0.973348940491 0.860703909143 0 
0.973993801451 0.865611436378 0 
0.974050394781 0.866783659325 0 
0.974240143544 0.868406405154 0 
0.974367204944 0.870133640001 0 
0.974669271891 0.873713934491 0 
0.971022103743 0.842991510093 0 
0.972429352329 0.859757066716 0 
0.972796345563 0.863005825802 0 
0.971949883447 0.856029883026 0 
0.973021227658 0.866026874877 0 
0.973305449082 0.868298539636 0 
0.97364496982 0.870765160268 0 
0.973696663428 0.871612101365 0 
0.973665055437 0.872550555598 0 
0.973866167363 0.874725440658 0 
0.973927975269 0.876618426631 0 
0.97406307638 0.878119750058 0 
0.973302344105 0.874746084624 0 
0.973728919384 0.88319562961 0 
0.97274357956 0.879684184316 0 
0.973706656188 0.885577585573 0 
0.973991110708 0.888117480815 0 
0.974282440992 0.890997712809 0 
0.974098901116 0.891189651235 0 
0.973924914506 0.892272095095 0 
0.974374369844 0.893756387104 0 
0.97395497657 0.893012427449 0 
0.97413429422 0.893945140682 0 
0.974307954836 0.894216961505 0 
0.973151102131 0.873761766564 0 
