0.969927415729 0.969291549412 0 
0.969361967899 0.968254486967 0 
0.969199849479 0.967882765826 0 
0.969198525419 0.968084160793 0 
0.968403037911 0.966379687465 0 
0.968042620133 0.965038315136 0 
0.96928448801 0.967449008658 0 
0.968983645502 0.966688581205 0 
0.96631170345 0.961870430379 0 
0.965682943672 0.962209866005 0 
0.963854621141 0.957590361393 0 
0.963451312829 0.957019321033 0 
0.964586264202 0.958439902833 0 
0.961125032727 0.94643131815 0 
0.957861303757 0.939690389527 0 
0.95721422972 0.939276405499 0 
0.958091074492 0.941289269253 0 
0.956503390823 0.936812983411 0 
0.955924251191 0.936183516562 0 
0.957270817295 0.939227556469 0 
0.955089436246 0.934452060081 0 
0.953446096137 0.931147760033 0 
0.953952539264 0.93195966117 0 
0.952281393002 0.926441266096 0 
0.952053257661 0.926556218257 0 
0.953737126045 0.930595166726 0 
0.960331543986 0.94639989758 0 
0.817428815402 0.797996959878 0 
0.817861899127 0.800558436999 0 
0.818108730439 0.802112750072 0 
0.817949786269 0.800950502155 0 
0.818187139326 0.802720397596 0 
0.818226517174 0.802819772771 0 
0.817885655753 0.799694932834 0 
0.818153385608 0.800527527664 0 
0.818096804168 0.798514253662 0 
0.818821095284 0.799852903225 0 
0.819303972588 0.801043114542 0 
0.819794893689 0.800338108877 0 
0.823053683638 0.8132066872 0 
0.822977979152 0.807539873909 0 
0.824258115556 0.805386810679 0 
0.954320692955 0.930029233968 0 
0.954514776531 0.929811502925 0 
0.954318084326 0.929928764412 0 
0.954790081463 0.93028962379 0 
0.953762924582 0.927640222632 0 
0.953245473353 0.927110170526 0 
0.95355301744 0.926979169734 0 
0.953252049039 0.926876847387 0 
0.952897983966 0.926972916401 0 
0.953461825867 0.927332005581 0 
0.963252409555 0.951541048697 0 
0.961093106388 0.94787708172 0 
0.959658219671 0.945043531807 0 
0.960096050568 0.945181037779 0 
0.958908601093 0.942710529218 0 
0.958812602571 0.94259890091 0 
0.959562868236 0.943579122744 0 
0.957993063381 0.940340455999 0 
0.957620821458 0.939538282647 0 
0.958435030034 0.940553150778 0 
0.957726497396 0.938824961181 0 
0.957160047406 0.937245707956 0 
0.958367463561 0.93997774223 0 
0.963460731139 0.949943554598 0 
0.961572125188 0.946058243667 0 
0.960522539275 0.944618350249 0 
0.961133717705 0.94556469135 0 
0.959983365563 0.942792343422 0 
0.959667756488 0.942786299351 0 
0.960275388418 0.943943067875 0 
0.959724977223 0.942192797705 0 
0.958889934546 0.940633824721 0 
0.95917506766 0.941358148394 0 
0.958737321218 0.940125838672 0 
0.958046367987 0.938952533169 0 
0.958525013011 0.940166271796 0 
0.965172519537 0.954416051505 0 
0.963219239223 0.95052284752 0 
0.962441158898 0.949293472063 0 
0.962386125261 0.949139104293 0 
0.962543744652 0.949441007264 0 
0.962200077732 0.948477959077 0 
0.961608124113 0.94738611698 0 
0.961397222604 0.947110825659 0 
0.961463889078 0.947261086479 0 
0.961425464048 0.947214736073 0 
0.961181148852 0.946571716851 0 
0.961071230166 0.946359130362 0 
0.960407091595 0.94514686691 0 
0.967654315955 0.960424178375 0 
0.967278592341 0.959796077037 0 
0.96696178214 0.959422807144 0 
0.966743563647 0.959042402012 0 
0.966590878981 0.958912343207 0 
0.966487166839 0.958696484563 0 
0.966108117054 0.957968202269 0 
0.965891271164 0.957511951519 0 
0.965640866149 0.957252536185 0 
0.965471906315 0.956815689998 0 
0.965249832048 0.956293233539 0 
0.96508456316 0.956162368 0 
0.964947856793 0.956008595686 0 
0.966593212563 0.958696153713 0 
0.965567398953 0.957116944195 0 
0.964859731726 0.955643696477 0 
0.964835313514 0.955725581244 0 
0.964866198129 0.955832686847 0 
0.964549222142 0.955279106532 0 
0.964337579941 0.954492498795 0 
0.964065770464 0.954277093136 0 
0.963927754976 0.953811744815 0 
0.963872577889 0.953442929077 0 
0.963606326746 0.95309155308 0 
0.96373873834 0.95322091262 0 
0.962650554827 0.951306777607 0 
0.967663003724 0.962232017903 0 
0.967088089089 0.9613401163 0 
0.966767089712 0.960963158577 0 
0.966525758162 0.960562763158 0 
0.96598046242 0.959364669867 0 
0.965550734991 0.958908287813 0 
0.965643689974 0.959063665107 0 
0.965601948035 0.958851380883 0 
0.965267543464 0.958408202065 0 
0.965335764438 0.958348883576 0 
0.965134816592 0.958100413402 0 
0.965062192205 0.95804510721 0 
0.964924135908 0.95765196808 0 
0.967098647992 0.961297224266 0 
0.965729630873 0.959375945442 0 
0.965666100389 0.959410628788 0 
0.965312596253 0.958633611265 0 
0.964675363397 0.957384368671 0 
0.964160488046 0.956437709398 0 
0.963703696411 0.955709948767 0 
0.9635529514 0.955303421549 0 
0.963549261544 0.955046467955 0 
0.963491535719 0.955010999086 0 
0.963283454065 0.954364552856 0 
0.963436095808 0.954645763574 0 
0.96259939083 0.95340740835 0 
0.967660728158 0.963135101848 0 
0.966778401111 0.961692178878 0 
0.965841287761 0.960156803222 0 
0.96567032522 0.960016980174 0 
0.965727949895 0.959894828847 0 
0.965201574486 0.959174287279 0 
0.965508410265 0.959369490459 0 
0.965271504347 0.958945733954 0 
0.965208211232 0.958791574987 0 
0.96507813047 0.958437027386 0 
0.964753166592 0.95785022648 0 
0.964716037461 0.957580873696 0 
0.964681594084 0.957371312815 0 
0.966881844483 0.961119146913 0 
0.966738949448 0.960827132914 0 
0.965633740449 0.959098435738 0 
0.965403580911 0.95883551124 0 
0.96497527335 0.957937735979 0 
0.964695026743 0.957370069311 0 
0.964422572552 0.956934691543 0 
0.964187995816 0.956214678467 0 
0.963996059009 0.95566159701 0 
0.963888784809 0.955374007516 0 
0.963562237034 0.954656722871 0 
0.963147817239 0.953554512008 0 
0.96297924066 0.953099231193 0 
0.840634019897 0.839153411409 0 
0.840597459325 0.837859143514 0 
0.841064605385 0.837780078719 0 
0.841585519699 0.837965532232 0 
0.842259860785 0.838227608657 0 
0.843183581417 0.838563505651 0 
0.844320552329 0.83954359335 0 
0.845574464284 0.84102439653 0 
0.847107587143 0.843086313079 0 
0.848433319293 0.844595086801 0 
0.849977224136 0.84594301453 0 
0.85150391707 0.847212265809 0 
0.852307537342 0.845740870262 0 
0.854001773021 0.853406036619 0 
0.854825730142 0.852528077231 0 
0.855786551176 0.852718478708 0 
0.85668636839 0.852166706694 0 
0.856783248434 0.850003644093 0 
0.857025132011 0.848058167148 0 
0.857238285806 0.845530202659 0 
0.857597782706 0.843748839557 0 
0.858046284435 0.84252363706 0 
0.858442910598 0.840840676159 0 
0.859000104626 0.839508807382 0 
0.859856830352 0.837956857865 0 
0.860821657771 0.836883824654 0 
0.862778104297 0.847299192081 0 
0.862961561277 0.845825904917 0 
0.862977590341 0.845160075706 0 
0.862383289373 0.84464956827 0 
0.861480931789 0.843581506021 0 
0.860664165847 0.844146683472 0 
0.858853747232 0.843747381443 0 
0.856855451518 0.843547038615 0 
0.957517129751 0.940090587124 0 
0.957338196156 0.939925627165 0 
0.957102262889 0.939831092061 0 
0.956547436833 0.938665251339 0 
0.956488274956 0.938624677495 0 
0.953862115638 0.928636580307 0 
0.952846853129 0.926606189713 0 
0.988395485415 0.991917019458 0 
0.988332107511 0.991477190694 0 
0.988318837931 0.991383167177 0 
0.988339936035 0.991493790023 0 
0.988335898213 0.991467000297 0 
0.988330937218 0.991439414436 0 
0.988334795675 0.991479553948 0 
0.988330552794 0.991462851796 0 
0.988330135992 0.99146386354 0 
0.988336902866 0.991494796063 0 
0.988330678352 0.991463009817 0 
0.988330308887 0.991461248902 0 
0.988284115144 0.991400717212 0 
0.988006350644 0.990761103009 0 
0.987890469997 0.990634274455 0 
0.987801788157 0.990604329264 0 
0.987700813408 0.990602101861 0 
0.987617076134 0.990559498124 0 
0.987563210751 0.990531731564 0 
0.987429444037 0.990502241546 0 
0.987362557278 0.990457847535 0 
0.987256531386 0.990255947338 0 
0.987263609244 0.990261035065 0 
0.987259394661 0.99012618901 0 
0.987351549725 0.990089145448 0 
0.98731739974 0.989890458256 0 
0.987572356356 0.98973906378 0 
0.987565034431 0.989610003543 0 
0.987502531039 0.989474606974 0 
0.987508598477 0.989328638751 0 
0.987473965478 0.989227938942 0 
0.987444645433 0.989152668245 0 
0.987423917701 0.989075413285 0 
0.98738298798 0.988959912839 0 
0.987317282459 0.98880730554 0 
0.98730942848 0.988655306644 0 
0.987229583801 0.988534584811 0 
0.987213965447 0.988361043896 0 
0.987140251395 0.988230521911 0 
0.987393347824 0.988016378585 0 
0.987339556999 0.988094004752 0 
0.987240271612 0.988071107786 0 
0.98721029073 0.987779120569 0 
0.987106795114 0.987669322829 0 
0.987158480278 0.987556106688 0 
0.987106017013 0.987193542863 0 
0.986912884133 0.986821874259 0 
0.986903058207 0.986811046184 0 
0.986862143127 0.986803242231 0 
0.986832984822 0.986782526269 0 
0.98668004705 0.986630486186 0 
0.986579052424 0.986459012352 0 
0.986910172393 0.986593540044 0 
0.986810938973 0.986504002591 0 
0.986914883987 0.986334694832 0 
0.987027598175 0.986190738046 0 
0.98703196142 0.986036744135 0 
0.986950530558 0.985748135805 0 
0.986902929701 0.98571498308 0 
0.986743057753 0.985732859721 0 
0.986614851905 0.985682533619 0 
0.986392245497 0.985702204439 0 
0.986622335787 0.985877910756 0 
0.986707294778 0.986089621404 0 
0.986682335137 0.985956669977 0 
0.987387906391 0.986326008128 0 
0.987443576399 0.986588868303 0 
0.987472276304 0.986467287914 0 
0.987553178565 0.98646422627 0 
0.987557454013 0.986495070949 0 
0.987652151836 0.986677712497 0 
0.987598321636 0.986390367787 0 
0.987605127622 0.98641837269 0 
0.987662170906 0.986419045979 0 
0.987739714468 0.986469989071 0 
0.987772768817 0.986531622212 0 
0.987794230118 0.986447805485 0 
0.987879712944 0.986536341888 0 
0.988589237035 0.988380599139 0 
0.988394863102 0.987980301467 0 
0.988324600192 0.987865477574 0 
0.98836893262 0.987978660603 0 
0.988334917861 0.987857624851 0 
0.988330655192 0.987788856019 0 
0.988439993646 0.987883170357 0 
0.988434184082 0.987886382258 0 
0.988448821962 0.987895551107 0 
0.988467262699 0.987949738142 0 
0.988455279336 0.987845012628 0 
0.98842580151 0.987727680476 0 
0.988485679222 0.987836600596 0 
0.989104588996 0.989128285666 0 
0.989016021072 0.988984061081 0 
0.988957195097 0.988768529614 0 
0.989035326239 0.988943490809 0 
0.988939193277 0.988690982891 0 
0.988961540543 0.988765501896 0 
0.988977941505 0.98884488107 0 
0.988883023631 0.988635780271 0 
0.988811461578 0.988661626211 0 
0.988938485987 0.988821257702 0 
0.98880823352 0.988536924234 0 
0.988805323584 0.988622733813 0 
0.98887364579 0.988650774073 0 
0.988686921543 0.988715240785 0 
0.988449410787 0.988295596 0 
0.98837933478 0.988222236273 0 
0.988451367365 0.988230538112 0 
0.988345228684 0.988159588329 0 
0.988228034284 0.988055135084 0 
0.988312902695 0.98812760862 0 
0.988161331796 0.988012998216 0 
0.988100007591 0.987903511613 0 
0.988023533633 0.987686562307 0 
0.98970168205 0.987054320711 0 
0.989529176438 0.986417009531 0 
0.989442453815 0.986043142401 0 
0.989394819701 0.985848703286 0 
0.989302052981 0.985614283538 0 
0.989203118911 0.98533963768 0 
0.989151770262 0.985139046615 0 
0.988934204097 0.984583674589 0 
0.98893025052 0.984678300989 0 
0.988904963416 0.984529519522 0 
0.988815360587 0.984240235281 0 
0.988816813006 0.983904096522 0 
0.988530212664 0.982992844629 0 
